%YAML 1.1
%TAG !u! tag:unity3d.com,2011:
--- !u!74 &7400000
AnimationClip:
  m_ObjectHideFlags: 0
  m_PrefabParentObject: {fileID: 0}
  m_PrefabInternal: {fileID: 0}
  m_Name: PlayerAttackActive
  serializedVersion: 6
  m_Legacy: 0
  m_Compressed: 0
  m_UseHighQualityCurve: 1
  m_RotationCurves: []
  m_CompressedRotationCurves: []
  m_PositionCurves: []
  m_ScaleCurves: []
  m_FloatCurves: []
  m_PPtrCurves:
  - curve:
    - time: 0
      value: {fileID: 21300062, guid: d452b02ea2d8b7d4ba0567da8d77cbd7, type: 3}
    - time: .0833333358
      value: {fileID: 21300064, guid: d452b02ea2d8b7d4ba0567da8d77cbd7, type: 3}
    - time: .166666672
      value: {fileID: 21300066, guid: d452b02ea2d8b7d4ba0567da8d77cbd7, type: 3}
    - time: .25
      value: {fileID: 21300068, guid: d452b02ea2d8b7d4ba0567da8d77cbd7, type: 3}
    - time: .333333343
      value: {fileID: 21300070, guid: d452b02ea2d8b7d4ba0567da8d77cbd7, type: 3}
    - time: .416666657
      value: {fileID: 21300072, guid: d452b02ea2d8b7d4ba0567da8d77cbd7, type: 3}
    - time: .5
      value: {fileID: 21300074, guid: d452b02ea2d8b7d4ba0567da8d77cbd7, type: 3}
    - time: .583333313
      value: {fileID: 21300076, guid: d452b02ea2d8b7d4ba0567da8d77cbd7, type: 3}
    - time: .666666687
      value: {fileID: 21300078, guid: d452b02ea2d8b7d4ba0567da8d77cbd7, type: 3}
    - time: .75
      value: {fileID: 21300080, guid: d452b02ea2d8b7d4ba0567da8d77cbd7, type: 3}
    - time: .833333313
      value: {fileID: 21300082, guid: d452b02ea2d8b7d4ba0567da8d77cbd7, type: 3}
    - time: .916666687
      value: {fileID: 21300084, guid: d452b02ea2d8b7d4ba0567da8d77cbd7, type: 3}
    - time: 1
      value: {fileID: 21300086, guid: d452b02ea2d8b7d4ba0567da8d77cbd7, type: 3}
    - time: 1.08333337
      value: {fileID: 21300088, guid: d452b02ea2d8b7d4ba0567da8d77cbd7, type: 3}
    - time: 1.16666663
      value: {fileID: 21300090, guid: d452b02ea2d8b7d4ba0567da8d77cbd7, type: 3}
    - time: 1.25
      value: {fileID: 21300092, guid: d452b02ea2d8b7d4ba0567da8d77cbd7, type: 3}
    attribute: m_Sprite
    path: 
    classID: 212
    script: {fileID: 0}
  m_SampleRate: 12
  m_WrapMode: 0
  m_Bounds:
    m_Center: {x: 0, y: 0, z: 0}
    m_Extent: {x: 0, y: 0, z: 0}
  m_ClipBindingConstant:
    genericBindings:
    - path: 0
      attribute: 0
      script: {fileID: 0}
      classID: 212
      customType: 23
      isPPtrCurve: 1
    pptrCurveMapping:
    - {fileID: 21300062, guid: d452b02ea2d8b7d4ba0567da8d77cbd7, type: 3}
    - {fileID: 21300064, guid: d452b02ea2d8b7d4ba0567da8d77cbd7, type: 3}
    - {fileID: 21300066, guid: d452b02ea2d8b7d4ba0567da8d77cbd7, type: 3}
    - {fileID: 21300068, guid: d452b02ea2d8b7d4ba0567da8d77cbd7, type: 3}
    - {fileID: 21300070, guid: d452b02ea2d8b7d4ba0567da8d77cbd7, type: 3}
    - {fileID: 21300072, guid: d452b02ea2d8b7d4ba0567da8d77cbd7, type: 3}
    - {fileID: 21300074, guid: d452b02ea2d8b7d4ba0567da8d77cbd7, type: 3}
    - {fileID: 21300076, guid: d452b02ea2d8b7d4ba0567da8d77cbd7, type: 3}
    - {fileID: 21300078, guid: d452b02ea2d8b7d4ba0567da8d77cbd7, type: 3}
    - {fileID: 21300080, guid: d452b02ea2d8b7d4ba0567da8d77cbd7, type: 3}
    - {fileID: 21300082, guid: d452b02ea2d8b7d4ba0567da8d77cbd7, type: 3}
    - {fileID: 21300084, guid: d452b02ea2d8b7d4ba0567da8d77cbd7, type: 3}
    - {fileID: 21300086, guid: d452b02ea2d8b7d4ba0567da8d77cbd7, type: 3}
    - {fileID: 21300088, guid: d452b02ea2d8b7d4ba0567da8d77cbd7, type: 3}
    - {fileID: 21300090, guid: d452b02ea2d8b7d4ba0567da8d77cbd7, type: 3}
    - {fileID: 21300092, guid: d452b02ea2d8b7d4ba0567da8d77cbd7, type: 3}
  m_AnimationClipSettings:
    serializedVersion: 2
    m_StartTime: 0
    m_StopTime: 1.33333337
    m_OrientationOffsetY: 0
    m_Level: 0
    m_CycleOffset: 0
    m_LoopTime: 0
    m_LoopBlend: 0
    m_LoopBlendOrientation: 0
    m_LoopBlendPositionY: 0
    m_LoopBlendPositionXZ: 0
    m_KeepOriginalOrientation: 0
    m_KeepOriginalPositionY: 1
    m_KeepOriginalPositionXZ: 0
    m_HeightFromFeet: 0
    m_Mirror: 0
  m_EditorCurves: []
  m_EulerEditorCurves: []
  m_HasGenericRootTransform: 0
  m_HasMotionFloatCurves: 0
  m_GenerateMotionCurves: 0
  m_Events:
  - time: 0
    functionName: AttackActive
    data: 
    objectReferenceParameter: {fileID: 0}
    floatParameter: 0
    intParameter: 0
    messageOptions: 0
